Introduction_to_ReliableTrendIndex
…
Obviously, this is the simple case. See the README for examples.

Multi-person workflows

In the case of analyzing a lot of data simultaneously (e.g., in a
research project or simulation study), the simplest way to think about
it is doing the previous case iteratively. However, you might have one,
two, or five hundred observations for a given person - it would be ideal
to have an analysis system that could handle all of those cases.

We have a simulated data set available in the package.

simulated_data
#> # A tibble: 5,995 × 10
#>       id num_obs BL_true Final_true diff_true index increment true_score
#>    <int>   <int>   <dbl>      <dbl>     <dbl> <dbl>     <dbl>      <dbl>
#>  1     1      12   0.199      0.513     0.314     0    0.0285      0.199
#>  2     1      12   0.199      0.513     0.314     1    0.0285      0.228
#>  3     1      12   0.199      0.513     0.314     2    0.0285      0.256
#>  4     1      12   0.199      0.513     0.314     3    0.0285      0.285
#>  5     1      12   0.199      0.513     0.314     4    0.0285      0.313
#>  6     1      12   0.199      0.513     0.314     5    0.0285      0.342
#>  7     1      12   0.199      0.513     0.314     6    0.0285      0.370
#>  8     1      12   0.199      0.513     0.314     7    0.0285      0.399
#>  9     1      12   0.199      0.513     0.314     8    0.0285      0.427
#> 10     1      12   0.199      0.513     0.314     9    0.0285      0.456
#> # … with 5,985 more rows, and 2 more variables: true_change <chr>,
#> #   obs_score <dbl>
…
